<svg width="225" height="225" viewBox="0 0 225 225" fill="none" xmlns="http://www.w3.org/2000/svg">
<path d="M162.5 75H125V143.75C125 152.038 121.708 159.987 115.847 165.847C109.987 171.708 102.038 175 93.75 175C85.462 175 77.5134 171.708 71.6529 165.847C65.7924 159.987 62.5 152.038 62.5 143.75C62.5 135.462 65.7924 127.513 71.6529 121.653C77.5134 115.792 85.462 112.5 93.75 112.5C100.875 112.5 107.25 114.875 112.5 118.75V50H162.5M200 0H25C18.3696 0 12.0107 2.63392 7.32233 7.32233C2.63392 12.0107 0 18.3696 0 25V200C0 206.63 2.63392 212.989 7.32233 217.678C12.0107 222.366 18.3696 225 25 225H200C206.63 225 212.989 222.366 217.678 217.678C222.366 212.989 225 206.63 225 200V25C225 18.3696 222.366 12.0107 217.678 7.32233C212.989 2.63392 206.63 0 200 0Z" fill="#0434BB"/>
</svg>
