<svg width="22" height="21" viewBox="0 0 22 21" fill="none" xmlns="http://www.w3.org/2000/svg">
<path d="M11.4946 16.7125L10.9786 16.4017L10.4626 16.7125L5.14057 19.9186L5.13006 19.9249L5.11971 19.9315C5.05278 19.9741 5.02254 19.9727 5.00224 19.971C4.92766 19.9648 4.89031 19.9454 4.85987 19.9217C4.79342 19.87 4.74163 19.8071 4.70026 19.7201C4.69889 19.7172 4.69792 19.7151 4.69729 19.7076C4.69652 19.6986 4.69569 19.672 4.70708 19.6226C4.70712 19.6224 4.70716 19.6223 4.7072 19.6221L6.11757 13.5639L6.25457 12.9754L5.79737 12.5804L1.09382 8.51683C1.01919 8.4481 1.01086 8.40937 1.00825 8.39728L1.00822 8.39713C0.994278 8.33236 0.998334 8.28307 1.01824 8.22758C1.05121 8.13732 1.08814 8.09195 1.11917 8.06424C1.12693 8.05922 1.1716 8.03343 1.28665 8.01468L7.47515 7.47239L8.07542 7.41979L8.30939 6.8645L10.7139 1.15774L10.7139 1.15774L10.7155 1.15407C10.7439 1.0858 10.7672 1.07137 10.7854 1.06101C10.8756 1.00959 10.9359 1 10.9786 1C11.0227 1 11.0825 1.00986 11.1704 1.0602C11.1886 1.07058 11.2132 1.08598 11.2429 1.15668L11.2433 1.15774L13.6479 6.8645L13.8818 7.41979L14.4821 7.47239L20.6706 8.01468C20.7856 8.03343 20.8303 8.05922 20.8381 8.06424C20.8692 8.09205 20.9063 8.13766 20.9394 8.22861C20.9601 8.28561 20.964 8.33483 20.9503 8.39841L20.9502 8.39887C20.9479 8.40983 20.9398 8.4475 20.8653 8.51517L16.1599 12.5804L15.7027 12.9754L15.8397 13.5639L17.2499 19.6214C17.2499 19.6216 17.25 19.6218 17.25 19.622C17.2615 19.6722 17.2607 19.6994 17.2599 19.7087C17.2593 19.7165 17.2582 19.7187 17.257 19.7214C17.2159 19.8079 17.1647 19.8696 17.0996 19.92L17.0974 19.9217C17.0669 19.9454 17.0296 19.9648 16.955 19.971C16.9347 19.9727 16.9045 19.9741 16.8375 19.9315L16.8272 19.9249L16.8167 19.9186L11.4946 16.7125Z" stroke="white" stroke-width="2"/>
</svg>
